{"frames": {

"grey_slider_horz":
{
	"frame": {"x":836,"y":101,"w":10,"h":10},
	"rotated": false,
	"trimmed": false,
	"spriteSourceSize": {"x":0,"y":0,"w":10,"h":10},
	"sourceSize": {"w":10,"h":10}
},
"grey_slider_vert":
{
	"frame": {"x":848,"y":101,"w":10,"h":10},
	"rotated": false,
	"trimmed": false,
	"spriteSourceSize": {"x":0,"y":0,"w":10,"h":10},
	"sourceSize": {"w":10,"h":10}
},
"hamburger_icon":
{
	"frame": {"x":728,"y":101,"w":53,"h":48},
	"rotated": false,
	"trimmed": true,
	"spriteSourceSize": {"x":8,"y":7,"w":53,"h":48},
	"sourceSize": {"w":64,"h":64}
},
"hamburger_icon_down":
{
	"frame": {"x":728,"y":101,"w":53,"h":48},
	"rotated": false,
	"trimmed": true,
	"spriteSourceSize": {"x":8,"y":7,"w":53,"h":48},
	"sourceSize": {"w":64,"h":64}
},
"hamburger_icon_over":
{
	"frame": {"x":728,"y":101,"w":53,"h":48},
	"rotated": false,
	"trimmed": true,
	"spriteSourceSize": {"x":8,"y":7,"w":53,"h":48},
	"sourceSize": {"w":64,"h":64}
},
"music_icon":
{
	"frame": {"x":728,"y":151,"w":46,"h":52},
	"rotated": false,
	"trimmed": true,
	"spriteSourceSize": {"x":12,"y":12,"w":46,"h":52},
	"sourceSize": {"w":72,"h":72}
},
"music_icon_mute":
{
	"frame": {"x":783,"y":101,"w":51,"h":52},
	"rotated": false,
	"trimmed": true,
	"spriteSourceSize": {"x":12,"y":12,"w":51,"h":52},
	"sourceSize": {"w":72,"h":72}
},
"popup_background":
{
	"frame": {"x":2,"y":2,"w":668,"h":463},
	"rotated": false,
	"trimmed": false,
	"spriteSourceSize": {"x":0,"y":0,"w":668,"h":463},
	"sourceSize": {"w":668,"h":463}
},
"red_btn_down":
{
	"frame": {"x":672,"y":53,"w":190,"h":46},
	"rotated": false,
	"trimmed": true,
	"spriteSourceSize": {"x":0,"y":0,"w":190,"h":46},
	"sourceSize": {"w":190,"h":49}
},
"red_btn_normal":
{
	"frame": {"x":672,"y":2,"w":190,"h":49},
	"rotated": false,
	"trimmed": false,
	"spriteSourceSize": {"x":0,"y":0,"w":190,"h":49},
	"sourceSize": {"w":190,"h":49}
},
"red_btn_over":
{
	"frame": {"x":672,"y":53,"w":190,"h":46},
	"rotated": false,
	"trimmed": true,
	"spriteSourceSize": {"x":0,"y":0,"w":190,"h":46},
	"sourceSize": {"w":190,"h":49}
},
"sfx_icon":
{
	"frame": {"x":672,"y":101,"w":54,"h":54},
	"rotated": false,
	"trimmed": true,
	"spriteSourceSize": {"x":9,"y":11,"w":54,"h":54},
	"sourceSize": {"w":72,"h":72}
},
"sfx_icon_mute":
{
	"frame": {"x":672,"y":157,"w":36,"h":54},
	"rotated": false,
	"trimmed": true,
	"spriteSourceSize": {"x":9,"y":11,"w":36,"h":54},
	"sourceSize": {"w":72,"h":72}
},
"yellow_slider_down":
{
	"frame": {"x":776,"y":155,"w":28,"h":42},
	"rotated": false,
	"trimmed": false,
	"spriteSourceSize": {"x":0,"y":0,"w":28,"h":42},
	"sourceSize": {"w":28,"h":42}
}},
"meta": {
	"app": "http://www.codeandweb.com/texturepacker",
	"version": "1.0",
	"image": "menu.png",
	"format": "RGBA8888",
	"size": {"w":864,"h":467},
	"scale": "1",
	"smartupdate": "$TexturePacker:SmartUpdate:3d081ae90efa8cd1fc7c9f30ca47f074:70da0255bf5838f80f36a46ca6558a21:e1b68abd82547da08a80c89591506971$"
}
}
