{"frames": {

"background":
{
	"frame": {"x":1,"y":1,"w":1480,"h":923},
	"rotated": false,
	"trimmed": false,
	"spriteSourceSize": {"x":0,"y":0,"w":1480,"h":923},
	"sourceSize": {"w":1480,"h":923}
},
"bomb":
{
	"frame": {"x":1414,"y":966,"w":30,"h":32},
	"rotated": false,
	"trimmed": false,
	"spriteSourceSize": {"x":0,"y":0,"w":30,"h":32},
	"sourceSize": {"w":30,"h":32}
},
"button_hover":
{
	"frame": {"x":810,"y":926,"w":300,"h":65},
	"rotated": false,
	"trimmed": false,
	"spriteSourceSize": {"x":0,"y":0,"w":300,"h":65},
	"sourceSize": {"w":300,"h":65}
},
"button_normal":
{
	"frame": {"x":1112,"y":926,"w":300,"h":65},
	"rotated": false,
	"trimmed": false,
	"spriteSourceSize": {"x":0,"y":0,"w":300,"h":65},
	"sourceSize": {"w":300,"h":65}
},
"fruits":
{
	"frame": {"x":1483,"y":113,"w":186,"h":168},
	"rotated": false,
	"trimmed": true,
	"spriteSourceSize": {"x":4,"y":0,"w":186,"h":168},
	"sourceSize": {"w":196,"h":168}
},
"input_box":
{
	"frame": {"x":1,"y":926,"w":455,"h":86},
	"rotated": false,
	"trimmed": false,
	"spriteSourceSize": {"x":0,"y":0,"w":455,"h":86},
	"sourceSize": {"w":455,"h":86}
},
"login_button":
{
	"frame": {"x":1483,"y":1,"w":230,"h":110},
	"rotated": false,
	"trimmed": false,
	"spriteSourceSize": {"x":0,"y":0,"w":230,"h":110},
	"sourceSize": {"w":230,"h":110}
},
"particle":
{
	"frame": {"x":458,"y":998,"w":2,"h":2},
	"rotated": false,
	"trimmed": false,
	"spriteSourceSize": {"x":0,"y":0,"w":2,"h":2},
	"sourceSize": {"w":2,"h":2}
},
"sfx_hover":
{
	"frame": {"x":458,"y":926,"w":86,"h":70},
	"rotated": false,
	"trimmed": false,
	"spriteSourceSize": {"x":0,"y":0,"w":86,"h":70},
	"sourceSize": {"w":86,"h":70}
},
"sfx_normal":
{
	"frame": {"x":546,"y":926,"w":86,"h":70},
	"rotated": false,
	"trimmed": false,
	"spriteSourceSize": {"x":0,"y":0,"w":86,"h":70},
	"sourceSize": {"w":86,"h":70}
},
"sfx_off_hover":
{
	"frame": {"x":634,"y":926,"w":86,"h":70},
	"rotated": false,
	"trimmed": false,
	"spriteSourceSize": {"x":0,"y":0,"w":86,"h":70},
	"sourceSize": {"w":86,"h":70}
},
"sfx_off_normal":
{
	"frame": {"x":722,"y":926,"w":86,"h":70},
	"rotated": false,
	"trimmed": false,
	"spriteSourceSize": {"x":0,"y":0,"w":86,"h":70},
	"sourceSize": {"w":86,"h":70}
},
"sword":
{
	"frame": {"x":1414,"y":926,"w":32,"h":38},
	"rotated": false,
	"trimmed": false,
	"spriteSourceSize": {"x":0,"y":0,"w":32,"h":38},
	"sourceSize": {"w":32,"h":38}
}},
"meta": {
	"app": "http://www.codeandweb.com/texturepacker",
	"version": "1.0",
	"image": "ui.png",
	"format": "RGBA8888",
	"size": {"w":1714,"h":1013},
	"scale": "1",
	"smartupdate": "$TexturePacker:SmartUpdate:195a813320b5d683acf17ba30700f1fe:4f22ca0545b21feada89ac7cff6f3726:5b04aa198265472a3c5f56958d78e97b$"
}
}
